%YAML 1.1
%TAG !u! tag:unity3d.com,2011:
--- !u!1 &77367801407696239
GameObject:
  m_ObjectHideFlags: 0
  m_CorrespondingSourceObject: {fileID: 0}
  m_PrefabInstance: {fileID: 0}
  m_PrefabAsset: {fileID: 0}
  serializedVersion: 6
  m_Component:
  - component: {fileID: 5131989331676061119}
  m_Layer: 0
  m_Name: bip R Calf
  m_TagString: Untagged
  m_Icon: {fileID: 0}
  m_NavMeshLayer: 0
  m_StaticEditorFlags: 0
  m_IsActive: 1
--- !u!4 &5131989331676061119
Transform:
  m_ObjectHideFlags: 0
  m_CorrespondingSourceObject: {fileID: 0}
  m_PrefabInstance: {fileID: 0}
  m_PrefabAsset: {fileID: 0}
  m_GameObject: {fileID: 77367801407696239}
  serializedVersion: 2
  m_LocalRotation: {x: -4.6386048e-10, y: -4.0912187e-11, z: 0.08785827, w: 0.99613297}
  m_LocalPosition: {x: -0.36270162, y: 0.0000000023841857, z: 0.000000019073486}
  m_LocalScale: {x: 1, y: 1, z: 1}
  m_ConstrainProportionsScale: 0
  m_Children:
  - {fileID: 3699366829457830879}
  m_Father: {fileID: 1786548270425471540}
  m_LocalEulerAnglesHint: {x: 0, y: 0, z: 0}
--- !u!1 &90921593705419415
GameObject:
  m_ObjectHideFlags: 0
  m_CorrespondingSourceObject: {fileID: 0}
  m_PrefabInstance: {fileID: 0}
  m_PrefabAsset: {fileID: 0}
  serializedVersion: 6
  m_Component:
  - component: {fileID: 6383442598101951652}
  m_Layer: 0
  m_Name: bip R Finger11
  m_TagString: Untagged
  m_Icon: {fileID: 0}
  m_NavMeshLayer: 0
  m_StaticEditorFlags: 0
  m_IsActive: 1
--- !u!4 &6383442598101951652
Transform:
  m_ObjectHideFlags: 0
  m_CorrespondingSourceObject: {fileID: 0}
  m_PrefabInstance: {fileID: 0}
  m_PrefabAsset: {fileID: 0}
  m_GameObject: {fileID: 90921593705419415}
  serializedVersion: 2
  m_LocalRotation: {x: 0.000000008815099, y: -0.0000000047862287, z: -0.11664809, w: 0.9931733}
  m_LocalPosition: {x: -0.038262136, y: 0, z: 0}
  m_LocalScale: {x: 1, y: 1, z: 1}
  m_ConstrainProportionsScale: 0
  m_Children: []
  m_Father: {fileID: 4808610647832690790}
  m_LocalEulerAnglesHint: {x: 0, y: 0, z: 0}
--- !u!1 &861265175060544594
GameObject:
  m_ObjectHideFlags: 0
  m_CorrespondingSourceObject: {fileID: 0}
  m_PrefabInstance: {fileID: 0}
  m_PrefabAsset: {fileID: 0}
  serializedVersion: 6
  m_Component:
  - component: {fileID: 6486235141791803116}
  m_Layer: 0
  m_Name: bip R Finger01
  m_TagString: Untagged
  m_Icon: {fileID: 0}
  m_NavMeshLayer: 0
  m_StaticEditorFlags: 0
  m_IsActive: 1
--- !u!4 &6486235141791803116
Transform:
  m_ObjectHideFlags: 0
  m_CorrespondingSourceObject: {fileID: 0}
  m_PrefabInstance: {fileID: 0}
  m_PrefabAsset: {fileID: 0}
  m_GameObject: {fileID: 861265175060544594}
  serializedVersion: 2
  m_LocalRotation: {x: -0.000000007689984, y: -0.000000014779036, z: -0.016131172, w: 0.9998699}
  m_LocalPosition: {x: -0.044082105, y: -0.000000038146972, z: 0}
  m_LocalScale: {x: 1, y: 1, z: 1}
  m_ConstrainProportionsScale: 0
  m_Children: []
  m_Father: {fileID: 8274129812364164837}
  m_LocalEulerAnglesHint: {x: 0, y: 0, z: 0}
--- !u!1 &913845681951795218
GameObject:
  m_ObjectHideFlags: 0
  m_CorrespondingSourceObject: {fileID: 0}
  m_PrefabInstance: {fileID: 0}
  m_PrefabAsset: {fileID: 0}
  serializedVersion: 6
  m_Component:
  - component: {fileID: 568985597124981416}
  - component: {fileID: 5838175529488836818}
  - component: {fileID: 235929507099083754}
  - component: {fileID: 855791054527053673}
  - component: {fileID: 4466265755814607500}
  - component: {fileID: 3400732332881790833}
  m_Layer: 0
  m_Name: casual_Male_K
  m_TagString: Customer
  m_Icon: {fileID: 0}
  m_NavMeshLayer: 0
  m_StaticEditorFlags: 0
  m_IsActive: 1
--- !u!4 &568985597124981416
Transform:
  m_ObjectHideFlags: 0
  m_CorrespondingSourceObject: {fileID: 0}
  m_PrefabInstance: {fileID: 0}
  m_PrefabAsset: {fileID: 0}
  m_GameObject: {fileID: 913845681951795218}
  serializedVersion: 2
  m_LocalRotation: {x: 0, y: 0, z: 0, w: 1}
  m_LocalPosition: {x: 0, y: 0, z: 0}
  m_LocalScale: {x: 1, y: 1, z: 1}
  m_ConstrainProportionsScale: 0
  m_Children:
  - {fileID: 2700336515457352974}
  - {fileID: 88854893034453554}
  - {fileID: 1460374590014791121}
  m_Father: {fileID: 0}
  m_LocalEulerAnglesHint: {x: 0, y: 0, z: 0}
--- !u!95 &5838175529488836818
Animator:
  serializedVersion: 5
  m_ObjectHideFlags: 0
  m_CorrespondingSourceObject: {fileID: 0}
  m_PrefabInstance: {fileID: 0}
  m_PrefabAsset: {fileID: 0}
  m_GameObject: {fileID: 913845681951795218}
  m_Enabled: 1
  m_Avatar: {fileID: 9000000, guid: b7c035cdee4609f4689888a8474b63b7, type: 3}
  m_Controller: {fileID: 9100000, guid: 62283de8ca021c34aa5e61353fb9a6f4, type: 2}
  m_CullingMode: 1
  m_UpdateMode: 0
  m_ApplyRootMotion: 0
  m_LinearVelocityBlending: 0
  m_StabilizeFeet: 0
  m_WarningMessage: 
  m_HasTransformHierarchy: 1
  m_AllowConstantClipSamplingOptimization: 1
  m_KeepAnimatorStateOnDisable: 0
  m_WriteDefaultValuesOnDisable: 0
--- !u!136 &235929507099083754
CapsuleCollider:
  m_ObjectHideFlags: 0
  m_CorrespondingSourceObject: {fileID: 0}
  m_PrefabInstance: {fileID: 0}
  m_PrefabAsset: {fileID: 0}
  m_GameObject: {fileID: 913845681951795218}
  m_Material: {fileID: 0}
  m_IncludeLayers:
    serializedVersion: 2
    m_Bits: 0
  m_ExcludeLayers:
    serializedVersion: 2
    m_Bits: 0
  m_LayerOverridePriority: 0
  m_IsTrigger: 0
  m_ProvidesContacts: 0
  m_Enabled: 1
  serializedVersion: 2
  m_Radius: 0.3
  m_Height: 1.8
  m_Direction: 1
  m_Center: {x: 0, y: 0.8, z: 0}
--- !u!195 &855791054527053673
NavMeshAgent:
  m_ObjectHideFlags: 0
  m_CorrespondingSourceObject: {fileID: 0}
  m_PrefabInstance: {fileID: 0}
  m_PrefabAsset: {fileID: 0}
  m_GameObject: {fileID: 913845681951795218}
  m_Enabled: 1
  m_AgentTypeID: 0
  m_Radius: 1
  m_Speed: 3.5
  m_Acceleration: 8
  avoidancePriority: 50
  m_AngularSpeed: 120
  m_StoppingDistance: 0
  m_AutoTraverseOffMeshLink: 1
  m_AutoBraking: 1
  m_AutoRepath: 1
  m_Height: 2
  m_BaseOffset: 0
  m_WalkableMask: 1
  m_ObstacleAvoidanceType: 4
--- !u!114 &4466265755814607500
MonoBehaviour:
  m_ObjectHideFlags: 0
  m_CorrespondingSourceObject: {fileID: 0}
  m_PrefabInstance: {fileID: 0}
  m_PrefabAsset: {fileID: 0}
  m_GameObject: {fileID: 913845681951795218}
  m_Enabled: 1
  m_EditorHideFlags: 0
  m_Script: {fileID: 11500000, guid: a1c9237fa1f849828fd3f84a98d4f68d, type: 3}
  m_Name: 
  m_EditorClassIdentifier: 
  counterTransform: {fileID: 0}
  exitTransform: {fileID: 0}
--- !u!136 &3400732332881790833
CapsuleCollider:
  m_ObjectHideFlags: 0
  m_CorrespondingSourceObject: {fileID: 0}
  m_PrefabInstance: {fileID: 0}
  m_PrefabAsset: {fileID: 0}
  m_GameObject: {fileID: 913845681951795218}
  m_Material: {fileID: 0}
  m_IncludeLayers:
    serializedVersion: 2
    m_Bits: 0
  m_ExcludeLayers:
    serializedVersion: 2
    m_Bits: 0
  m_LayerOverridePriority: 0
  m_IsTrigger: 1
  m_ProvidesContacts: 0
  m_Enabled: 1
  serializedVersion: 2
  m_Radius: 1
  m_Height: 1.8
  m_Direction: 1
  m_Center: {x: 0, y: 0.8, z: 0}
--- !u!1 &944684095800602908
GameObject:
  m_ObjectHideFlags: 0
  m_CorrespondingSourceObject: {fileID: 0}
  m_PrefabInstance: {fileID: 0}
  m_PrefabAsset: {fileID: 0}
  serializedVersion: 6
  m_Component:
  - component: {fileID: 1334223786805904050}
  m_Layer: 0
  m_Name: bip L Calf
  m_TagString: Untagged
  m_Icon: {fileID: 0}
  m_NavMeshLayer: 0
  m_StaticEditorFlags: 0
  m_IsActive: 1
--- !u!4 &1334223786805904050
Transform:
  m_ObjectHideFlags: 0
  m_CorrespondingSourceObject: {fileID: 0}
  m_PrefabInstance: {fileID: 0}
  m_PrefabAsset: {fileID: 0}
  m_GameObject: {fileID: 944684095800602908}
  serializedVersion: 2
  m_LocalRotation: {x: -0.0000000100141975, y: -0.00000000836275, z: 0.08785827, w: 0.99613297}
  m_LocalPosition: {x: -0.36270157, y: -0.0000000023841857, z: -0.000000019073486}
  m_LocalScale: {x: 1, y: 1, z: 1}
  m_ConstrainProportionsScale: 0
  m_Children:
  - {fileID: 7508272566073732652}
  m_Father: {fileID: 3155115179294795598}
  m_LocalEulerAnglesHint: {x: 0, y: 0, z: 0}
--- !u!1 &1640848165812475790
GameObject:
  m_ObjectHideFlags: 0
  m_CorrespondingSourceObject: {fileID: 0}
  m_PrefabInstance: {fileID: 0}
  m_PrefabAsset: {fileID: 0}
  serializedVersion: 6
  m_Component:
  - component: {fileID: 7962991899936000533}
  m_Layer: 0
  m_Name: bip R UpperArm
  m_TagString: Untagged
  m_Icon: {fileID: 0}
  m_NavMeshLayer: 0
  m_StaticEditorFlags: 0
  m_IsActive: 1
--- !u!4 &7962991899936000533
Transform:
  m_ObjectHideFlags: 0
  m_CorrespondingSourceObject: {fileID: 0}
  m_PrefabInstance: {fileID: 0}
  m_PrefabAsset: {fileID: 0}
  m_GameObject: {fileID: 1640848165812475790}
  serializedVersion: 2
  m_LocalRotation: {x: -0.14591019, y: 0.12606102, z: 0.0039344397, w: 0.98122543}
  m_LocalPosition: {x: -0.12833339, y: 0, z: 0}
  m_LocalScale: {x: 1, y: 1, z: 1}
  m_ConstrainProportionsScale: 0
  m_Children:
  - {fileID: 2611194603758697691}
  m_Father: {fileID: 3299233546113719692}
  m_LocalEulerAnglesHint: {x: 0, y: 0, z: 0}
--- !u!1 &1675959038841506693
GameObject:
  m_ObjectHideFlags: 0
  m_CorrespondingSourceObject: {fileID: 0}
  m_PrefabInstance: {fileID: 0}
  m_PrefabAsset: {fileID: 0}
  serializedVersion: 6
  m_Component:
  - component: {fileID: 403577309110335904}
  m_Layer: 0
  m_Name: bip L Toe0
  m_TagString: Untagged
  m_Icon: {fileID: 0}
  m_NavMeshLayer: 0
  m_StaticEditorFlags: 0
  m_IsActive: 1
--- !u!4 &403577309110335904
Transform:
  m_ObjectHideFlags: 0
  m_CorrespondingSourceObject: {fileID: 0}
  m_PrefabInstance: {fileID: 0}
  m_PrefabAsset: {fileID: 0}
  m_GameObject: {fileID: 1675959038841506693}
  serializedVersion: 2
  m_LocalRotation: {x: 3.3656447e-10, y: -6.907744e-10, z: -0.7507482, w: 0.66058844}
  m_LocalPosition: {x: -0.0866919, y: 0.14267431, z: -0.001474781}
  m_LocalScale: {x: 1, y: 1, z: 1}
  m_ConstrainProportionsScale: 0
  m_Children: []
  m_Father: {fileID: 7508272566073732652}
  m_LocalEulerAnglesHint: {x: 0, y: 0, z: 0}
--- !u!1 &2228176839346836929
GameObject:
  m_ObjectHideFlags: 0
  m_CorrespondingSourceObject: {fileID: 0}
  m_PrefabInstance: {fileID: 0}
  m_PrefabAsset: {fileID: 0}
  serializedVersion: 6
  m_Component:
  - component: {fileID: 3513899499612023354}
  m_Layer: 0
  m_Name: bip L Forearm
  m_TagString: Untagged
  m_Icon: {fileID: 0}
  m_NavMeshLayer: 0
  m_StaticEditorFlags: 0
  m_IsActive: 1
--- !u!4 &3513899499612023354
Transform:
  m_ObjectHideFlags: 0
  m_CorrespondingSourceObject: {fileID: 0}
  m_PrefabInstance: {fileID: 0}
  m_PrefabAsset: {fileID: 0}
  m_GameObject: {fileID: 2228176839346836929}
  serializedVersion: 2
  m_LocalRotation: {x: -1.4192703e-10, y: 0.0000000020323188, z: 0.06966536, w: 0.99757046}
  m_LocalPosition: {x: -0.24493964, y: -0.000000009536743, z: 0}
  m_LocalScale: {x: 1, y: 1, z: 1}
  m_ConstrainProportionsScale: 0
  m_Children:
  - {fileID: 1573391951402977418}
  m_Father: {fileID: 2905425784693528470}
  m_LocalEulerAnglesHint: {x: 0, y: 0, z: 0}
--- !u!1 &3230335394704909869
GameObject:
  m_ObjectHideFlags: 0
  m_CorrespondingSourceObject: {fileID: 0}
  m_PrefabInstance: {fileID: 0}
  m_PrefabAsset: {fileID: 0}
  serializedVersion: 6
  m_Component:
  - component: {fileID: 6881832098831962314}
  m_Layer: 0
  m_Name: bip R Hand
  m_TagString: Untagged
  m_Icon: {fileID: 0}
  m_NavMeshLayer: 0
  m_StaticEditorFlags: 0
  m_IsActive: 1
--- !u!4 &6881832098831962314
Transform:
  m_ObjectHideFlags: 0
  m_CorrespondingSourceObject: {fileID: 0}
  m_PrefabInstance: {fileID: 0}
  m_PrefabAsset: {fileID: 0}
  m_GameObject: {fileID: 3230335394704909869}
  serializedVersion: 2
  m_LocalRotation: {x: 0.6930474, y: 0.13571663, z: -0.04158759, w: 0.70677924}
  m_LocalPosition: {x: -0.24018085, y: -0.000000019073486, z: 0}
  m_LocalScale: {x: 1, y: 1, z: 1}
  m_ConstrainProportionsScale: 0
  m_Children:
  - {fileID: 8274129812364164837}
  - {fileID: 4808610647832690790}
  m_Father: {fileID: 2611194603758697691}
  m_LocalEulerAnglesHint: {x: 0, y: 0, z: 0}
--- !u!1 &3437902268827110383
GameObject:
  m_ObjectHideFlags: 0
  m_CorrespondingSourceObject: {fileID: 0}
  m_PrefabInstance: {fileID: 0}
  m_PrefabAsset: {fileID: 0}
  serializedVersion: 6
  m_Component:
  - component: {fileID: 6355587291228775119}
  m_Layer: 0
  m_Name: bip L Finger0
  m_TagString: Untagged
  m_Icon: {fileID: 0}
  m_NavMeshLayer: 0
  m_StaticEditorFlags: 0
  m_IsActive: 1
--- !u!4 &6355587291228775119
Transform:
  m_ObjectHideFlags: 0
  m_CorrespondingSourceObject: {fileID: 0}
  m_PrefabInstance: {fileID: 0}
  m_PrefabAsset: {fileID: 0}
  m_GameObject: {fileID: 3437902268827110383}
  serializedVersion: 2
  m_LocalRotation: {x: 0.6159676, y: -0.17461228, z: -0.00092902005, w: 0.76817554}
  m_LocalPosition: {x: -0.051850393, y: 0.024488373, z: -0.055632494}
  m_LocalScale: {x: 1, y: 1, z: 1}
  m_ConstrainProportionsScale: 0
  m_Children:
  - {fileID: 6652955910217109030}
  m_Father: {fileID: 1573391951402977418}
  m_LocalEulerAnglesHint: {x: 0, y: 0, z: 0}
--- !u!1 &4113159114265965606
GameObject:
  m_ObjectHideFlags: 0
  m_CorrespondingSourceObject: {fileID: 0}
  m_PrefabInstance: {fileID: 0}
  m_PrefabAsset: {fileID: 0}
  serializedVersion: 6
  m_Component:
  - component: {fileID: 3500710716153223075}
  m_Layer: 0
  m_Name: bip Neck
  m_TagString: Untagged
  m_Icon: {fileID: 0}
  m_NavMeshLayer: 0
  m_StaticEditorFlags: 0
  m_IsActive: 1
--- !u!4 &3500710716153223075
Transform:
  m_ObjectHideFlags: 0
  m_CorrespondingSourceObject: {fileID: 0}
  m_PrefabInstance: {fileID: 0}
  m_PrefabAsset: {fileID: 0}
  m_GameObject: {fileID: 4113159114265965606}
  serializedVersion: 2
  m_LocalRotation: {x: 1.3769475e-13, y: 0.0000007796438, z: -0.28109452, w: 0.9596801}
  m_LocalPosition: {x: -0.29515287, y: 0.027971763, z: 0.00000004962814}
  m_LocalScale: {x: 1, y: 1, z: 1}
  m_ConstrainProportionsScale: 0
  m_Children:
  - {fileID: 4587813193319516732}
  m_Father: {fileID: 2726223424316126095}
  m_LocalEulerAnglesHint: {x: 0, y: 0, z: 0}
--- !u!1 &4386610270165916890
GameObject:
  m_ObjectHideFlags: 0
  m_CorrespondingSourceObject: {fileID: 0}
  m_PrefabInstance: {fileID: 0}
  m_PrefabAsset: {fileID: 0}
  serializedVersion: 6
  m_Component:
  - component: {fileID: 1786548270425471540}
  m_Layer: 0
  m_Name: bip R Thigh
  m_TagString: Untagged
  m_Icon: {fileID: 0}
  m_NavMeshLayer: 0
  m_StaticEditorFlags: 0
  m_IsActive: 1
--- !u!4 &1786548270425471540
Transform:
  m_ObjectHideFlags: 0
  m_CorrespondingSourceObject: {fileID: 0}
  m_PrefabInstance: {fileID: 0}
  m_PrefabAsset: {fileID: 0}
  m_GameObject: {fileID: 4386610270165916890}
  serializedVersion: 2
  m_LocalRotation: {x: -0.019222727, y: 0.9963443, z: -0.07291967, w: -0.040140536}
  m_LocalPosition: {x: -0.00000015258789, y: -0.000000095367426, z: -0.09608835}
  m_LocalScale: {x: 1, y: 1, z: 1}
  m_ConstrainProportionsScale: 0
  m_Children:
  - {fileID: 5131989331676061119}
  m_Father: {fileID: 5172207139811484688}
  m_LocalEulerAnglesHint: {x: 0, y: 0, z: 0}
--- !u!1 &4796404977791593330
GameObject:
  m_ObjectHideFlags: 0
  m_CorrespondingSourceObject: {fileID: 0}
  m_PrefabInstance: {fileID: 0}
  m_PrefabAsset: {fileID: 0}
  serializedVersion: 6
  m_Component:
  - component: {fileID: 2905425784693528470}
  m_Layer: 0
  m_Name: bip L UpperArm
  m_TagString: Untagged
  m_Icon: {fileID: 0}
  m_NavMeshLayer: 0
  m_StaticEditorFlags: 0
  m_IsActive: 1
--- !u!4 &2905425784693528470
Transform:
  m_ObjectHideFlags: 0
  m_CorrespondingSourceObject: {fileID: 0}
  m_PrefabInstance: {fileID: 0}
  m_PrefabAsset: {fileID: 0}
  m_GameObject: {fileID: 4796404977791593330}
  serializedVersion: 2
  m_LocalRotation: {x: 0.14591019, y: -0.12606132, z: 0.0039344067, w: 0.98122543}
  m_LocalPosition: {x: -0.12833339, y: 0.000000019073486, z: 0}
  m_LocalScale: {x: 1, y: 1, z: 1}
  m_ConstrainProportionsScale: 0
  m_Children:
  - {fileID: 3513899499612023354}
  m_Father: {fileID: 5793242255239022609}
  m_LocalEulerAnglesHint: {x: 0, y: 0, z: 0}
--- !u!1 &4945522798045509994
GameObject:
  m_ObjectHideFlags: 0
  m_CorrespondingSourceObject: {fileID: 0}
  m_PrefabInstance: {fileID: 0}
  m_PrefabAsset: {fileID: 0}
  serializedVersion: 6
  m_Component:
  - component: {fileID: 2350362923576700967}
  m_Layer: 0
  m_Name: bip L Finger11
  m_TagString: Untagged
  m_Icon: {fileID: 0}
  m_NavMeshLayer: 0
  m_StaticEditorFlags: 0
  m_IsActive: 1
--- !u!4 &2350362923576700967
Transform:
  m_ObjectHideFlags: 0
  m_CorrespondingSourceObject: {fileID: 0}
  m_PrefabInstance: {fileID: 0}
  m_PrefabAsset: {fileID: 0}
  m_GameObject: {fileID: 4945522798045509994}
  serializedVersion: 2
  m_LocalRotation: {x: -0.000000009249647, y: 0.0000000010863702, z: -0.116648115, w: 0.9931733}
  m_LocalPosition: {x: -0.03826225, y: 0, z: 0.000000019073486}
  m_LocalScale: {x: 1, y: 1, z: 1}
  m_ConstrainProportionsScale: 0
  m_Children: []
  m_Father: {fileID: 4609811912812543400}
  m_LocalEulerAnglesHint: {x: 0, y: 0, z: 0}
--- !u!1 &5068009392078146268
GameObject:
  m_ObjectHideFlags: 0
  m_CorrespondingSourceObject: {fileID: 0}
  m_PrefabInstance: {fileID: 0}
  m_PrefabAsset: {fileID: 0}
  serializedVersion: 6
  m_Component:
  - component: {fileID: 1512054181843247168}
  m_Layer: 0
  m_Name: bip R Toe0
  m_TagString: Untagged
  m_Icon: {fileID: 0}
  m_NavMeshLayer: 0
  m_StaticEditorFlags: 0
  m_IsActive: 1
--- !u!4 &1512054181843247168
Transform:
  m_ObjectHideFlags: 0
  m_CorrespondingSourceObject: {fileID: 0}
  m_PrefabInstance: {fileID: 0}
  m_PrefabAsset: {fileID: 0}
  m_GameObject: {fileID: 5068009392078146268}
  serializedVersion: 2
  m_LocalRotation: {x: -0.0000000028257547, y: -0.0000000021196638, z: -0.7507482, w: 0.66058844}
  m_LocalPosition: {x: -0.0866919, y: 0.14267431, z: 0.001474781}
  m_LocalScale: {x: 1, y: 1, z: 1}
  m_ConstrainProportionsScale: 0
  m_Children: []
  m_Father: {fileID: 3699366829457830879}
  m_LocalEulerAnglesHint: {x: 0, y: 0, z: 0}
--- !u!1 &5272417177126669794
GameObject:
  m_ObjectHideFlags: 0
  m_CorrespondingSourceObject: {fileID: 0}
  m_PrefabInstance: {fileID: 0}
  m_PrefabAsset: {fileID: 0}
  serializedVersion: 6
  m_Component:
  - component: {fileID: 2611194603758697691}
  m_Layer: 0
  m_Name: bip R Forearm
  m_TagString: Untagged
  m_Icon: {fileID: 0}
  m_NavMeshLayer: 0
  m_StaticEditorFlags: 0
  m_IsActive: 1
--- !u!4 &2611194603758697691
Transform:
  m_ObjectHideFlags: 0
  m_CorrespondingSourceObject: {fileID: 0}
  m_PrefabInstance: {fileID: 0}
  m_PrefabAsset: {fileID: 0}
  m_GameObject: {fileID: 5272417177126669794}
  serializedVersion: 2
  m_LocalRotation: {x: 7.501856e-11, y: -0.0000000010742256, z: 0.06966536, w: 0.99757046}
  m_LocalPosition: {x: -0.24493964, y: 0, z: 0}
  m_LocalScale: {x: 1, y: 1, z: 1}
  m_ConstrainProportionsScale: 0
  m_Children:
  - {fileID: 6881832098831962314}
  m_Father: {fileID: 7962991899936000533}
  m_LocalEulerAnglesHint: {x: 0, y: 0, z: 0}
--- !u!1 &5498982108412606373
GameObject:
  m_ObjectHideFlags: 0
  m_CorrespondingSourceObject: {fileID: 0}
  m_PrefabInstance: {fileID: 0}
  m_PrefabAsset: {fileID: 0}
  serializedVersion: 6
  m_Component:
  - component: {fileID: 4808610647832690790}
  m_Layer: 0
  m_Name: bip R Finger1
  m_TagString: Untagged
  m_Icon: {fileID: 0}
  m_NavMeshLayer: 0
  m_StaticEditorFlags: 0
  m_IsActive: 1
--- !u!4 &4808610647832690790
Transform:
  m_ObjectHideFlags: 0
  m_CorrespondingSourceObject: {fileID: 0}
  m_PrefabInstance: {fileID: 0}
  m_PrefabAsset: {fileID: 0}
  m_GameObject: {fileID: 5498982108412606373}
  serializedVersion: 2
  m_LocalRotation: {x: 0.00039737552, y: 0.000024899417, z: -0.06252896, w: 0.9980431}
  m_LocalPosition: {x: -0.11399723, y: -0.006282043, z: 0.00039724348}
  m_LocalScale: {x: 1, y: 1, z: 1}
  m_ConstrainProportionsScale: 0
  m_Children:
  - {fileID: 6383442598101951652}
  m_Father: {fileID: 6881832098831962314}
  m_LocalEulerAnglesHint: {x: 0, y: 0, z: 0}
--- !u!1 &5724836245346224887
GameObject:
  m_ObjectHideFlags: 0
  m_CorrespondingSourceObject: {fileID: 0}
  m_PrefabInstance: {fileID: 0}
  m_PrefabAsset: {fileID: 0}
  serializedVersion: 6
  m_Component:
  - component: {fileID: 7508272566073732652}
  m_Layer: 0
  m_Name: bip L Foot
  m_TagString: Untagged
  m_Icon: {fileID: 0}
  m_NavMeshLayer: 0
  m_StaticEditorFlags: 0
  m_IsActive: 1
--- !u!4 &7508272566073732652
Transform:
  m_ObjectHideFlags: 0
  m_CorrespondingSourceObject: {fileID: 0}
  m_PrefabInstance: {fileID: 0}
  m_PrefabAsset: {fileID: 0}
  m_GameObject: {fileID: 5724836245346224887}
  serializedVersion: 2
  m_LocalRotation: {x: 0.039689187, y: 0.036060967, z: -0.0671126, w: 0.9963033}
  m_LocalPosition: {x: -0.40162283, y: 0.0000000047683715, z: 0}
  m_LocalScale: {x: 1, y: 1, z: 1}
  m_ConstrainProportionsScale: 0
  m_Children:
  - {fileID: 403577309110335904}
  m_Father: {fileID: 1334223786805904050}
  m_LocalEulerAnglesHint: {x: 0, y: 0, z: 0}
--- !u!1 &5844583332526098261
GameObject:
  m_ObjectHideFlags: 0
  m_CorrespondingSourceObject: {fileID: 0}
  m_PrefabInstance: {fileID: 0}
  m_PrefabAsset: {fileID: 0}
  serializedVersion: 6
  m_Component:
  - component: {fileID: 3699366829457830879}
  m_Layer: 0
  m_Name: bip R Foot
  m_TagString: Untagged
  m_Icon: {fileID: 0}
  m_NavMeshLayer: 0
  m_StaticEditorFlags: 0
  m_IsActive: 1
--- !u!4 &3699366829457830879
Transform:
  m_ObjectHideFlags: 0
  m_CorrespondingSourceObject: {fileID: 0}
  m_PrefabInstance: {fileID: 0}
  m_PrefabAsset: {fileID: 0}
  m_GameObject: {fileID: 5844583332526098261}
  serializedVersion: 2
  m_LocalRotation: {x: -0.03968919, y: -0.036061056, z: -0.067112595, w: 0.9963033}
  m_LocalPosition: {x: -0.40162283, y: 0, z: 0}
  m_LocalScale: {x: 1, y: 1, z: 1}
  m_ConstrainProportionsScale: 0
  m_Children:
  - {fileID: 1512054181843247168}
  m_Father: {fileID: 5131989331676061119}
  m_LocalEulerAnglesHint: {x: 0, y: 0, z: 0}
--- !u!1 &5922001735615400014
GameObject:
  m_ObjectHideFlags: 0
  m_CorrespondingSourceObject: {fileID: 0}
  m_PrefabInstance: {fileID: 0}
  m_PrefabAsset: {fileID: 0}
  serializedVersion: 6
  m_Component:
  - component: {fileID: 1460374590014791121}
  m_Layer: 0
  m_Name: rig_CharRoot
  m_TagString: Untagged
  m_Icon: {fileID: 0}
  m_NavMeshLayer: 0
  m_StaticEditorFlags: 0
  m_IsActive: 1
--- !u!4 &1460374590014791121
Transform:
  m_ObjectHideFlags: 0
  m_CorrespondingSourceObject: {fileID: 0}
  m_PrefabInstance: {fileID: 0}
  m_PrefabAsset: {fileID: 0}
  m_GameObject: {fileID: 5922001735615400014}
  serializedVersion: 2
  m_LocalRotation: {x: -0.7071068, y: 0, z: -0, w: 0.7071068}
  m_LocalPosition: {x: -0, y: 0, z: 0}
  m_LocalScale: {x: 1, y: 1, z: 1}
  m_ConstrainProportionsScale: 0
  m_Children:
  - {fileID: 3384165730348025545}
  m_Father: {fileID: 568985597124981416}
  m_LocalEulerAnglesHint: {x: 0, y: 0, z: 0}
--- !u!1 &6266979170328052076
GameObject:
  m_ObjectHideFlags: 0
  m_CorrespondingSourceObject: {fileID: 0}
  m_PrefabInstance: {fileID: 0}
  m_PrefabAsset: {fileID: 0}
  serializedVersion: 6
  m_Component:
  - component: {fileID: 5172207139811484688}
  m_Layer: 0
  m_Name: bip Pelvis
  m_TagString: Untagged
  m_Icon: {fileID: 0}
  m_NavMeshLayer: 0
  m_StaticEditorFlags: 0
  m_IsActive: 1
--- !u!4 &5172207139811484688
Transform:
  m_ObjectHideFlags: 0
  m_CorrespondingSourceObject: {fileID: 0}
  m_PrefabInstance: {fileID: 0}
  m_PrefabAsset: {fileID: 0}
  m_GameObject: {fileID: 6266979170328052076}
  serializedVersion: 2
  m_LocalRotation: {x: -0.5, y: 0.5, z: 0.4999993, w: 0.5000007}
  m_LocalPosition: {x: -0, y: 0, z: 0}
  m_LocalScale: {x: 1, y: 1, z: 1}
  m_ConstrainProportionsScale: 0
  m_Children:
  - {fileID: 3155115179294795598}
  - {fileID: 1786548270425471540}
  - {fileID: 8704012182563296697}
  m_Father: {fileID: 3384165730348025545}
  m_LocalEulerAnglesHint: {x: 0, y: 0, z: 0}
--- !u!1 &6292184026343580831
GameObject:
  m_ObjectHideFlags: 0
  m_CorrespondingSourceObject: {fileID: 0}
  m_PrefabInstance: {fileID: 0}
  m_PrefabAsset: {fileID: 0}
  serializedVersion: 6
  m_Component:
  - component: {fileID: 4587813193319516732}
  m_Layer: 0
  m_Name: bip Head
  m_TagString: Untagged
  m_Icon: {fileID: 0}
  m_NavMeshLayer: 0
  m_StaticEditorFlags: 0
  m_IsActive: 1
--- !u!4 &4587813193319516732
Transform:
  m_ObjectHideFlags: 0
  m_CorrespondingSourceObject: {fileID: 0}
  m_PrefabInstance: {fileID: 0}
  m_PrefabAsset: {fileID: 0}
  m_GameObject: {fileID: 6292184026343580831}
  serializedVersion: 2
  m_LocalRotation: {x: -0.00000002442574, y: -0.00000030803687, z: 0.16586694, w: 0.9861482}
  m_LocalPosition: {x: -0.052847594, y: 0, z: 0}
  m_LocalScale: {x: 1, y: 1, z: 1}
  m_ConstrainProportionsScale: 0
  m_Children: []
  m_Father: {fileID: 3500710716153223075}
  m_LocalEulerAnglesHint: {x: 0, y: 0, z: 0}
--- !u!1 &6495018019069612102
GameObject:
  m_ObjectHideFlags: 0
  m_CorrespondingSourceObject: {fileID: 0}
  m_PrefabInstance: {fileID: 0}
  m_PrefabAsset: {fileID: 0}
  serializedVersion: 6
  m_Component:
  - component: {fileID: 5793242255239022609}
  m_Layer: 0
  m_Name: bip L Clavicle
  m_TagString: Untagged
  m_Icon: {fileID: 0}
  m_NavMeshLayer: 0
  m_StaticEditorFlags: 0
  m_IsActive: 1
--- !u!4 &5793242255239022609
Transform:
  m_ObjectHideFlags: 0
  m_CorrespondingSourceObject: {fileID: 0}
  m_PrefabInstance: {fileID: 0}
  m_PrefabAsset: {fileID: 0}
  m_GameObject: {fileID: 6495018019069612102}
  serializedVersion: 2
  m_LocalRotation: {x: 0.7950628, y: 0.00031739252, z: -0.6065269, w: 0.00024039115}
  m_LocalPosition: {x: -0.24379943, y: -0.00039892195, z: 0.04450922}
  m_LocalScale: {x: 1, y: 1, z: 1}
  m_ConstrainProportionsScale: 0
  m_Children:
  - {fileID: 2905425784693528470}
  m_Father: {fileID: 2726223424316126095}
  m_LocalEulerAnglesHint: {x: 0, y: 0, z: 0}
--- !u!1 &7181205271115269272
GameObject:
  m_ObjectHideFlags: 0
  m_CorrespondingSourceObject: {fileID: 0}
  m_PrefabInstance: {fileID: 0}
  m_PrefabAsset: {fileID: 0}
  serializedVersion: 6
  m_Component:
  - component: {fileID: 8704012182563296697}
  m_Layer: 0
  m_Name: bip Spine
  m_TagString: Untagged
  m_Icon: {fileID: 0}
  m_NavMeshLayer: 0
  m_StaticEditorFlags: 0
  m_IsActive: 1
--- !u!4 &8704012182563296697
Transform:
  m_ObjectHideFlags: 0
  m_CorrespondingSourceObject: {fileID: 0}
  m_PrefabInstance: {fileID: 0}
  m_PrefabAsset: {fileID: 0}
  m_GameObject: {fileID: 7181205271115269272}
  serializedVersion: 2
  m_LocalRotation: {x: -0.0000020986956, y: 0.00000075096693, z: -0.027858675, w: 0.99961185}
  m_LocalPosition: {x: -0.072285384, y: 0.00906144, z: 0.000000037773717}
  m_LocalScale: {x: 1, y: 1, z: 1}
  m_ConstrainProportionsScale: 0
  m_Children:
  - {fileID: 2726223424316126095}
  m_Father: {fileID: 5172207139811484688}
  m_LocalEulerAnglesHint: {x: 0, y: 0, z: 0}
--- !u!1 &7422851143255773775
GameObject:
  m_ObjectHideFlags: 0
  m_CorrespondingSourceObject: {fileID: 0}
  m_PrefabInstance: {fileID: 0}
  m_PrefabAsset: {fileID: 0}
  serializedVersion: 6
  m_Component:
  - component: {fileID: 88854893034453554}
  - component: {fileID: 5061046543345898046}
  m_Layer: 0
  m_Name: casual_Male_K
  m_TagString: Untagged
  m_Icon: {fileID: 0}
  m_NavMeshLayer: 0
  m_StaticEditorFlags: 0
  m_IsActive: 1
--- !u!4 &88854893034453554
Transform:
  m_ObjectHideFlags: 0
  m_CorrespondingSourceObject: {fileID: 0}
  m_PrefabInstance: {fileID: 0}
  m_PrefabAsset: {fileID: 0}
  m_GameObject: {fileID: 7422851143255773775}
  serializedVersion: 2
  m_LocalRotation: {x: -0.7071068, y: 0, z: -0, w: 0.7071068}
  m_LocalPosition: {x: -0, y: 0, z: 0}
  m_LocalScale: {x: 1, y: 1, z: 1}
  m_ConstrainProportionsScale: 0
  m_Children: []
  m_Father: {fileID: 568985597124981416}
  m_LocalEulerAnglesHint: {x: 0, y: 0, z: 0}
--- !u!137 &5061046543345898046
SkinnedMeshRenderer:
  m_ObjectHideFlags: 0
  m_CorrespondingSourceObject: {fileID: 0}
  m_PrefabInstance: {fileID: 0}
  m_PrefabAsset: {fileID: 0}
  m_GameObject: {fileID: 7422851143255773775}
  m_Enabled: 1
  m_CastShadows: 1
  m_ReceiveShadows: 1
  m_DynamicOccludee: 1
  m_StaticShadowCaster: 0
  m_MotionVectors: 1
  m_LightProbeUsage: 1
  m_ReflectionProbeUsage: 1
  m_RayTracingMode: 3
  m_RayTraceProcedural: 0
  m_RenderingLayerMask: 1
  m_RendererPriority: 0
  m_Materials:
  - {fileID: 2100000, guid: 1a77ecb7d10f8e344a05c9cf5a49b8b4, type: 2}
  m_StaticBatchInfo:
    firstSubMesh: 0
    subMeshCount: 0
  m_StaticBatchRoot: {fileID: 0}
  m_ProbeAnchor: {fileID: 0}
  m_LightProbeVolumeOverride: {fileID: 0}
  m_ScaleInLightmap: 1
  m_ReceiveGI: 1
  m_PreserveUVs: 0
  m_IgnoreNormalsForChartDetection: 0
  m_ImportantGI: 0
  m_StitchLightmapSeams: 1
  m_SelectedEditorRenderState: 3
  m_MinimumChartSize: 4
  m_AutoUVMaxDistance: 0.5
  m_AutoUVMaxAngle: 89
  m_LightmapParameters: {fileID: 0}
  m_SortingLayerID: 0
  m_SortingLayer: 0
  m_SortingOrder: 0
  serializedVersion: 2
  m_Quality: 0
  m_UpdateWhenOffscreen: 0
  m_SkinnedMotionVectors: 1
  m_Mesh: {fileID: -6663818757187089724, guid: b7c035cdee4609f4689888a8474b63b7, type: 3}
  m_Bones:
  - {fileID: 5131989331676061119}
  - {fileID: 3699366829457830879}
  - {fileID: 1786548270425471540}
  - {fileID: 3155115179294795598}
  - {fileID: 8704012182563296697}
  - {fileID: 5172207139811484688}
  - {fileID: 2726223424316126095}
  - {fileID: 3299233546113719692}
  - {fileID: 7962991899936000533}
  - {fileID: 2611194603758697691}
  - {fileID: 6881832098831962314}
  - {fileID: 8274129812364164837}
  - {fileID: 4808610647832690790}
  - {fileID: 6383442598101951652}
  - {fileID: 6486235141791803116}
  - {fileID: 4587813193319516732}
  - {fileID: 3500710716153223075}
  - {fileID: 1512054181843247168}
  - {fileID: 1334223786805904050}
  - {fileID: 7508272566073732652}
  - {fileID: 5793242255239022609}
  - {fileID: 2905425784693528470}
  - {fileID: 3513899499612023354}
  - {fileID: 1573391951402977418}
  - {fileID: 6355587291228775119}
  - {fileID: 4609811912812543400}
  - {fileID: 2350362923576700967}
  - {fileID: 6652955910217109030}
  - {fileID: 403577309110335904}
  m_BlendShapeWeights: []
  m_RootBone: {fileID: 5172207139811484688}
  m_AABB:
    m_Center: {x: 0.024508268, y: -0.005756438, z: 0.00000086426735}
    m_Extent: {x: 0.8519082, y: 0.23224396, z: 0.8560598}
  m_DirtyAABB: 0
--- !u!1 &7780384624796570001
GameObject:
  m_ObjectHideFlags: 0
  m_CorrespondingSourceObject: {fileID: 0}
  m_PrefabInstance: {fileID: 0}
  m_PrefabAsset: {fileID: 0}
  serializedVersion: 6
  m_Component:
  - component: {fileID: 6652955910217109030}
  m_Layer: 0
  m_Name: bip L Finger01
  m_TagString: Untagged
  m_Icon: {fileID: 0}
  m_NavMeshLayer: 0
  m_StaticEditorFlags: 0
  m_IsActive: 1
--- !u!4 &6652955910217109030
Transform:
  m_ObjectHideFlags: 0
  m_CorrespondingSourceObject: {fileID: 0}
  m_PrefabInstance: {fileID: 0}
  m_PrefabAsset: {fileID: 0}
  m_GameObject: {fileID: 7780384624796570001}
  serializedVersion: 2
  m_LocalRotation: {x: -0.000000015139594, y: -0.000000014658849, z: -0.016131142, w: 0.9998699}
  m_LocalPosition: {x: -0.044082105, y: 0, z: 0}
  m_LocalScale: {x: 1, y: 1, z: 1}
  m_ConstrainProportionsScale: 0
  m_Children: []
  m_Father: {fileID: 6355587291228775119}
  m_LocalEulerAnglesHint: {x: 0, y: 0, z: 0}
--- !u!1 &8016492176865390631
GameObject:
  m_ObjectHideFlags: 0
  m_CorrespondingSourceObject: {fileID: 0}
  m_PrefabInstance: {fileID: 0}
  m_PrefabAsset: {fileID: 0}
  serializedVersion: 6
  m_Component:
  - component: {fileID: 8274129812364164837}
  m_Layer: 0
  m_Name: bip R Finger0
  m_TagString: Untagged
  m_Icon: {fileID: 0}
  m_NavMeshLayer: 0
  m_StaticEditorFlags: 0
  m_IsActive: 1
--- !u!4 &8274129812364164837
Transform:
  m_ObjectHideFlags: 0
  m_CorrespondingSourceObject: {fileID: 0}
  m_PrefabInstance: {fileID: 0}
  m_PrefabAsset: {fileID: 0}
  m_GameObject: {fileID: 8016492176865390631}
  serializedVersion: 2
  m_LocalRotation: {x: -0.6159676, y: 0.17461231, z: -0.000929039, w: 0.76817554}
  m_LocalPosition: {x: -0.051850356, y: 0.024488678, z: 0.055632476}
  m_LocalScale: {x: 1, y: 1, z: 1}
  m_ConstrainProportionsScale: 0
  m_Children:
  - {fileID: 6486235141791803116}
  m_Father: {fileID: 6881832098831962314}
  m_LocalEulerAnglesHint: {x: 0, y: 0, z: 0}
--- !u!1 &8353249830358982969
GameObject:
  m_ObjectHideFlags: 0
  m_CorrespondingSourceObject: {fileID: 0}
  m_PrefabInstance: {fileID: 0}
  m_PrefabAsset: {fileID: 0}
  serializedVersion: 6
  m_Component:
  - component: {fileID: 2726223424316126095}
  m_Layer: 0
  m_Name: bip Spine1
  m_TagString: Untagged
  m_Icon: {fileID: 0}
  m_NavMeshLayer: 0
  m_StaticEditorFlags: 0
  m_IsActive: 1
--- !u!4 &2726223424316126095
Transform:
  m_ObjectHideFlags: 0
  m_CorrespondingSourceObject: {fileID: 0}
  m_PrefabInstance: {fileID: 0}
  m_PrefabAsset: {fileID: 0}
  m_GameObject: {fileID: 8353249830358982969}
  serializedVersion: 2
  m_LocalRotation: {x: -0.00000002070493, y: -0.0000005685742, z: 0.13600107, w: 0.9907087}
  m_LocalPosition: {x: -0.19559814, y: -0.00019001961, z: -5.086258e-10}
  m_LocalScale: {x: 1, y: 1, z: 1}
  m_ConstrainProportionsScale: 0
  m_Children:
  - {fileID: 5793242255239022609}
  - {fileID: 3500710716153223075}
  - {fileID: 3299233546113719692}
  m_Father: {fileID: 8704012182563296697}
  m_LocalEulerAnglesHint: {x: 0, y: 0, z: 0}
--- !u!1 &8496443858478868980
GameObject:
  m_ObjectHideFlags: 0
  m_CorrespondingSourceObject: {fileID: 0}
  m_PrefabInstance: {fileID: 0}
  m_PrefabAsset: {fileID: 0}
  serializedVersion: 6
  m_Component:
  - component: {fileID: 4609811912812543400}
  m_Layer: 0
  m_Name: bip L Finger1
  m_TagString: Untagged
  m_Icon: {fileID: 0}
  m_NavMeshLayer: 0
  m_StaticEditorFlags: 0
  m_IsActive: 1
--- !u!4 &4609811912812543400
Transform:
  m_ObjectHideFlags: 0
  m_CorrespondingSourceObject: {fileID: 0}
  m_PrefabInstance: {fileID: 0}
  m_PrefabAsset: {fileID: 0}
  m_GameObject: {fileID: 8496443858478868980}
  serializedVersion: 2
  m_LocalRotation: {x: -0.00039736822, y: -0.000024901747, z: -0.062528946, w: 0.9980431}
  m_LocalPosition: {x: -0.11399734, y: -0.006282196, z: -0.00039724348}
  m_LocalScale: {x: 1, y: 1, z: 1}
  m_ConstrainProportionsScale: 0
  m_Children:
  - {fileID: 2350362923576700967}
  m_Father: {fileID: 1573391951402977418}
  m_LocalEulerAnglesHint: {x: 0, y: 0, z: 0}
--- !u!1 &8528048400651513665
GameObject:
  m_ObjectHideFlags: 0
  m_CorrespondingSourceObject: {fileID: 0}
  m_PrefabInstance: {fileID: 0}
  m_PrefabAsset: {fileID: 0}
  serializedVersion: 6
  m_Component:
  - component: {fileID: 3155115179294795598}
  m_Layer: 0
  m_Name: bip L Thigh
  m_TagString: Untagged
  m_Icon: {fileID: 0}
  m_NavMeshLayer: 0
  m_StaticEditorFlags: 0
  m_IsActive: 1
--- !u!4 &3155115179294795598
Transform:
  m_ObjectHideFlags: 0
  m_CorrespondingSourceObject: {fileID: 0}
  m_PrefabInstance: {fileID: 0}
  m_PrefabAsset: {fileID: 0}
  m_GameObject: {fileID: 8528048400651513665}
  serializedVersion: 2
  m_LocalRotation: {x: -0.019222677, y: 0.9963445, z: 0.0729183, w: 0.04013904}
  m_LocalPosition: {x: 0.00000015258789, y: 0.00000016927719, z: 0.09608835}
  m_LocalScale: {x: 1, y: 1, z: 1}
  m_ConstrainProportionsScale: 0
  m_Children:
  - {fileID: 1334223786805904050}
  m_Father: {fileID: 5172207139811484688}
  m_LocalEulerAnglesHint: {x: 0, y: 0, z: 0}
--- !u!1 &8528590216658366030
GameObject:
  m_ObjectHideFlags: 0
  m_CorrespondingSourceObject: {fileID: 0}
  m_PrefabInstance: {fileID: 0}
  m_PrefabAsset: {fileID: 0}
  serializedVersion: 6
  m_Component:
  - component: {fileID: 3299233546113719692}
  m_Layer: 0
  m_Name: bip R Clavicle
  m_TagString: Untagged
  m_Icon: {fileID: 0}
  m_NavMeshLayer: 0
  m_StaticEditorFlags: 0
  m_IsActive: 1
--- !u!4 &3299233546113719692
Transform:
  m_ObjectHideFlags: 0
  m_CorrespondingSourceObject: {fileID: 0}
  m_PrefabInstance: {fileID: 0}
  m_PrefabAsset: {fileID: 0}
  m_GameObject: {fileID: 8528590216658366030}
  serializedVersion: 2
  m_LocalRotation: {x: 0.7950628, y: 0.00031571105, z: 0.6065269, w: -0.00024259694}
  m_LocalPosition: {x: -0.24379943, y: -0.000398674, z: -0.04450923}
  m_LocalScale: {x: 1, y: 1, z: 1}
  m_ConstrainProportionsScale: 0
  m_Children:
  - {fileID: 7962991899936000533}
  m_Father: {fileID: 2726223424316126095}
  m_LocalEulerAnglesHint: {x: 0, y: 0, z: 0}
--- !u!1 &8783215628669486931
GameObject:
  m_ObjectHideFlags: 0
  m_CorrespondingSourceObject: {fileID: 0}
  m_PrefabInstance: {fileID: 0}
  m_PrefabAsset: {fileID: 0}
  serializedVersion: 6
  m_Component:
  - component: {fileID: 1573391951402977418}
  m_Layer: 0
  m_Name: bip L Hand
  m_TagString: Untagged
  m_Icon: {fileID: 0}
  m_NavMeshLayer: 0
  m_StaticEditorFlags: 0
  m_IsActive: 1
--- !u!4 &1573391951402977418
Transform:
  m_ObjectHideFlags: 0
  m_CorrespondingSourceObject: {fileID: 0}
  m_PrefabInstance: {fileID: 0}
  m_PrefabAsset: {fileID: 0}
  m_GameObject: {fileID: 8783215628669486931}
  serializedVersion: 2
  m_LocalRotation: {x: -0.6930474, y: -0.13571666, z: -0.041587584, w: 0.70677924}
  m_LocalPosition: {x: -0.2401809, y: 0, z: 0}
  m_LocalScale: {x: 1, y: 1, z: 1}
  m_ConstrainProportionsScale: 0
  m_Children:
  - {fileID: 6355587291228775119}
  - {fileID: 4609811912812543400}
  m_Father: {fileID: 3513899499612023354}
  m_LocalEulerAnglesHint: {x: 0, y: 0, z: 0}
--- !u!1 &8814859009517054594
GameObject:
  m_ObjectHideFlags: 0
  m_CorrespondingSourceObject: {fileID: 0}
  m_PrefabInstance: {fileID: 0}
  m_PrefabAsset: {fileID: 0}
  serializedVersion: 6
  m_Component:
  - component: {fileID: 3384165730348025545}
  m_Layer: 0
  m_Name: bip
  m_TagString: Untagged
  m_Icon: {fileID: 0}
  m_NavMeshLayer: 0
  m_StaticEditorFlags: 0
  m_IsActive: 1
--- !u!4 &3384165730348025545
Transform:
  m_ObjectHideFlags: 0
  m_CorrespondingSourceObject: {fileID: 0}
  m_PrefabInstance: {fileID: 0}
  m_PrefabAsset: {fileID: 0}
  m_GameObject: {fileID: 8814859009517054594}
  serializedVersion: 2
  m_LocalRotation: {x: 0, y: 0, z: 0.7071063, w: 0.70710725}
  m_LocalPosition: {x: -0, y: 0.016664496, z: 0.8530674}
  m_LocalScale: {x: 1, y: 1, z: 1}
  m_ConstrainProportionsScale: 0
  m_Children:
  - {fileID: 5172207139811484688}
  m_Father: {fileID: 1460374590014791121}
  m_LocalEulerAnglesHint: {x: 0, y: 0, z: 0}
--- !u!1 &8976775322387202612
GameObject:
  m_ObjectHideFlags: 0
  m_CorrespondingSourceObject: {fileID: 0}
  m_PrefabInstance: {fileID: 0}
  m_PrefabAsset: {fileID: 0}
  serializedVersion: 6
  m_Component:
  - component: {fileID: 2700336515457352974}
  - component: {fileID: 5784824473368395811}
  m_Layer: 0
  m_Name: acc_intelect_glasses
  m_TagString: Untagged
  m_Icon: {fileID: 0}
  m_NavMeshLayer: 0
  m_StaticEditorFlags: 0
  m_IsActive: 1
--- !u!4 &2700336515457352974
Transform:
  m_ObjectHideFlags: 0
  m_CorrespondingSourceObject: {fileID: 0}
  m_PrefabInstance: {fileID: 0}
  m_PrefabAsset: {fileID: 0}
  m_GameObject: {fileID: 8976775322387202612}
  serializedVersion: 2
  m_LocalRotation: {x: -0.7071068, y: 0, z: -0, w: 0.7071068}
  m_LocalPosition: {x: -0, y: 1.5520662, z: 0.08204192}
  m_LocalScale: {x: 1, y: 1, z: 1}
  m_ConstrainProportionsScale: 0
  m_Children: []
  m_Father: {fileID: 568985597124981416}
  m_LocalEulerAnglesHint: {x: 0, y: 0, z: 0}
--- !u!137 &5784824473368395811
SkinnedMeshRenderer:
  m_ObjectHideFlags: 0
  m_CorrespondingSourceObject: {fileID: 0}
  m_PrefabInstance: {fileID: 0}
  m_PrefabAsset: {fileID: 0}
  m_GameObject: {fileID: 8976775322387202612}
  m_Enabled: 1
  m_CastShadows: 1
  m_ReceiveShadows: 1
  m_DynamicOccludee: 1
  m_StaticShadowCaster: 0
  m_MotionVectors: 1
  m_LightProbeUsage: 1
  m_ReflectionProbeUsage: 1
  m_RayTracingMode: 3
  m_RayTraceProcedural: 0
  m_RenderingLayerMask: 1
  m_RendererPriority: 0
  m_Materials:
  - {fileID: 2100000, guid: 1a77ecb7d10f8e344a05c9cf5a49b8b4, type: 2}
  m_StaticBatchInfo:
    firstSubMesh: 0
    subMeshCount: 0
  m_StaticBatchRoot: {fileID: 0}
  m_ProbeAnchor: {fileID: 0}
  m_LightProbeVolumeOverride: {fileID: 0}
  m_ScaleInLightmap: 1
  m_ReceiveGI: 1
  m_PreserveUVs: 0
  m_IgnoreNormalsForChartDetection: 0
  m_ImportantGI: 0
  m_StitchLightmapSeams: 1
  m_SelectedEditorRenderState: 3
  m_MinimumChartSize: 4
  m_AutoUVMaxDistance: 0.5
  m_AutoUVMaxAngle: 89
  m_LightmapParameters: {fileID: 0}
  m_SortingLayerID: 0
  m_SortingLayer: 0
  m_SortingOrder: 0
  serializedVersion: 2
  m_Quality: 0
  m_UpdateWhenOffscreen: 0
  m_SkinnedMotionVectors: 1
  m_Mesh: {fileID: -1009796000979665624, guid: b7c035cdee4609f4689888a8474b63b7, type: 3}
  m_Bones:
  - {fileID: 4587813193319516732}
  m_BlendShapeWeights: []
  m_RootBone: {fileID: 4587813193319516732}
  m_AABB:
    m_Center: {x: -0.10073611, y: 0.05346855, z: 0.00000022351742}
    m_Extent: {x: 0.017750904, y: 0.055391815, z: 0.0678862}
  m_DirtyAABB: 0
